[{"line":1,"elements":[{"line":11,"name":"url and path test case 2","description":"","id":"url-and-path-test-case-2","type":"scenario","keyword":"Scenario","steps":[{"name":"url \"http:\/\/reqres.in\"","result":{"duration":2182200,"status":"passed"},"match":{"location":"karate","arguments":[]},"keyword":"Given","line":12,"doc_string":{"content_type":"","value":"18:16:07.725 skipping bootstrap configuration: could not find or read file: classpath:karate-config.js","line":12}},{"name":"path \"api\/users\"","result":{"duration":1762200,"status":"passed"},"match":{"location":"karate","arguments":[]},"keyword":"And","line":13},{"name":"param page =  3","result":{"duration":2450200,"status":"passed"},"match":{"location":"karate","arguments":[]},"keyword":"*","line":14},{"name":"method GET","result":{"duration":965072400,"status":"passed"},"match":{"location":"karate","arguments":[]},"keyword":"When","line":15,"doc_string":{"content_type":"","value":"18:16:08.120 request:\n1 > GET http:\/\/reqres.in\/api\/users?page=3\n1 > Accept-Encoding: gzip,deflate\n1 > Connection: Keep-Alive\n1 > Host: reqres.in\n1 > User-Agent: Apache-HttpClient\/4.5.12 (Java\/1.8.0_251)\n\n18:16:08.293 response time in milliseconds: 172.57\n1 < 301\n1 < CF-RAY: 5fb5262228c01ab8-SIN\n1 < Cache-Control: max-age=3600\n1 < Connection: keep-alive\n1 < Date: Wed, 02 Dec 2020 12:46:07 GMT\n1 < Expires: Wed, 02 Dec 2020 13:46:07 GMT\n1 < Location: https:\/\/reqres.in\/api\/users?page=3\n1 < NEL: {\"report_to\":\"cf-nel\",\"max_age\":604800}\n1 < Report-To: {\"endpoints\":[{\"url\":\"https:\\\/\\\/a.nel.cloudflare.com\\\/report?s=vbj9GSGj9qlqr5q9FxCkihny7mifI4lTuUc6O93V12U17tU7qHbIpKq8YZ0H3tKhiEnugYqSlWJ8tEFilyjmAwRlrwZ2hgrjTBE%3D\"}],\"group\":\"cf-nel\",\"max_age\":604800}\n1 < Server: cloudflare\n1 < Transfer-Encoding: chunked\n1 < Vary: Accept-Encoding\n1 < cf-request-id: 06c516295600001ab87e13a000000001\n\n18:16:08.297 request:\n2 > GET http:\/\/reqres.in\/api\/users?page=3\n2 > Accept-Encoding: gzip,deflate\n2 > Connection: Keep-Alive\n2 > Host: reqres.in\n2 > User-Agent: Apache-HttpClient\/4.5.12 (Java\/1.8.0_251)\n\n18:16:08.671 response time in milliseconds: 371.11\n2 < 200\n2 < Access-Control-Allow-Origin: *\n2 < Age: 1627\n2 < CF-Cache-Status: HIT\n2 < CF-RAY: 5fb526246f95aa72-SIN\n2 < Cache-Control: max-age=14400\n2 < Connection: keep-alive\n2 < Content-Type: application\/json; charset=utf-8\n2 < Date: Wed, 02 Dec 2020 12:46:08 GMT\n2 < Etag: W\/\"c5-hJoimgtl6KhaZadfgKS3TQ7g00U\"\n2 < Expect-CT: max-age=604800, report-uri=\"https:\/\/report-uri.cloudflare.com\/cdn-cgi\/beacon\/expect-ct\"\n2 < NEL: {\"report_to\":\"cf-nel\",\"max_age\":604800}\n2 < Report-To: {\"endpoints\":[{\"url\":\"https:\\\/\\\/a.nel.cloudflare.com\\\/report?s=cdOJNDddyGQkVLUqDTCn8ncSr%2Baw%2BVBDQPN2%2FB4cFcJuIb9yVjHF%2F5UJrKnqGFAiH4cZrZxj%2FnAuIEBNozii4yYn5HcbcP11e4w%3D\"}],\"group\":\"cf-nel\",\"max_age\":604800}\n2 < Server: cloudflare\n2 < Set-Cookie: __cfduid=d32d0ccfc4e90f123e9f7280de5b4a46c1606913168; expires=Fri, 01-Jan-21 12:46:08 GMT; path=\/; domain=.reqres.in; HttpOnly; SameSite=Lax; Secure\n2 < Transfer-Encoding: chunked\n2 < Vary: Accept-Encoding\n2 < Via: 1.1 vegur\n2 < X-Powered-By: Express\n2 < cf-request-id: 06c5162ac60000aa7228865000000001\n{\"page\":3,\"per_page\":6,\"total\":12,\"total_pages\":2,\"data\":[],\"support\":{\"url\":\"https:\/\/reqres.in\/#support-heading\",\"text\":\"To keep ReqRes free, contributions towards server costs are appreciated!\"}}","line":15}},{"name":"status 200","result":{"duration":26400,"status":"passed"},"match":{"location":"karate","arguments":[]},"keyword":"Then","line":16},{"name":"match response.page == 3","result":{"duration":11426300,"status":"passed"},"match":{"location":"karate","arguments":[]},"keyword":"*","line":17}]}],"name":"src\/test\/java\/featurefiles\/karate10.feature","description":"reqres testig","id":"reqres-testig","keyword":"Feature","uri":"src\/test\/java\/featurefiles\/karate10.feature"}]