[{"line":1,"elements":[{"line":14,"name":"url and path data driven testimg","description":"","id":"url-and-path-data-driven-testimg","type":"scenario","keyword":"Scenario Outline","steps":[{"name":"url \"http:\/\/reqres.in\"","result":{"duration":2380800,"status":"passed"},"match":{"location":"karate","arguments":[]},"keyword":"Given","line":5,"doc_string":{"content_type":"","value":"16:53:42.442 skipping bootstrap configuration: could not find or read file: classpath:karate-config.js","line":5}},{"name":"path \"api\/users?page=1\"","result":{"duration":1850100,"status":"passed"},"match":{"location":"karate","arguments":[]},"keyword":"And","line":6},{"name":"method GET","result":{"duration":933149100,"status":"passed"},"match":{"location":"karate","arguments":[]},"keyword":"When","line":8,"doc_string":{"content_type":"","value":"16:53:42.830 request:\n1 > GET http:\/\/reqres.in\/api\/users%3Fpage=1\n1 > Accept-Encoding: gzip,deflate\n1 > Connection: Keep-Alive\n1 > Host: reqres.in\n1 > User-Agent: Apache-HttpClient\/4.5.12 (Java\/1.8.0_251)\n\n16:53:43.006 response time in milliseconds: 175.29\n1 < 301\n1 < CF-RAY: 5fb4ad66a84218ca-SIN\n1 < Cache-Control: max-age=3600\n1 < Connection: keep-alive\n1 < Date: Wed, 02 Dec 2020 11:23:42 GMT\n1 < Expires: Wed, 02 Dec 2020 12:23:42 GMT\n1 < Location: https:\/\/reqres.in\/api\/users%3Fpage=1\n1 < NEL: {\"report_to\":\"cf-nel\",\"max_age\":604800}\n1 < Report-To: {\"endpoints\":[{\"url\":\"https:\\\/\\\/a.nel.cloudflare.com\\\/report?s=srirgjVfofeN0BTZ4%2Bak0xN3Lwxn1mcOYCOOqz92VArmSR60k0ZdlC0CTo6mEMh5%2BtC1qAf7C8tINrZseXmxRr9Ya9zD%2FGaKD38%3D\"}],\"group\":\"cf-nel\",\"max_age\":604800}\n1 < Server: cloudflare\n1 < Transfer-Encoding: chunked\n1 < Vary: Accept-Encoding\n1 < cf-request-id: 06c4cab425000018cab8188000000001\n\n16:53:43.010 request:\n2 > GET http:\/\/reqres.in\/api\/users%3Fpage=1\n2 > Accept-Encoding: gzip,deflate\n2 > Connection: Keep-Alive\n2 > Host: reqres.in\n2 > User-Agent: Apache-HttpClient\/4.5.12 (Java\/1.8.0_251)\n\n16:53:43.355 response time in milliseconds: 341.69\n2 < 200\n2 < Age: 131\n2 < CF-Cache-Status: HIT\n2 < CF-RAY: 5fb4ad68dfe41700-SIN\n2 < Cache-Control: max-age=14400\n2 < Connection: keep-alive\n2 < Content-Type: application\/json; charset=utf-8\n2 < Date: Wed, 02 Dec 2020 11:23:42 GMT\n2 < Expect-CT: max-age=604800, report-uri=\"https:\/\/report-uri.cloudflare.com\/cdn-cgi\/beacon\/expect-ct\"\n2 < NEL: {\"report_to\":\"cf-nel\",\"max_age\":604800}\n2 < Report-To: {\"endpoints\":[{\"url\":\"https:\\\/\\\/a.nel.cloudflare.com\\\/report?s=qQ2AZNNfBF7kon2rKO2tMsGaDeAwdChtqFmyjnxCwT5S3ZIWPY0YyL%2FszaAkBtEHloc74WbFzSkTsefey7n%2FLaFIPoj81BExTFU%3D\"}],\"group\":\"cf-nel\",\"max_age\":604800}\n2 < Server: cloudflare\n2 < Set-Cookie: __cfduid=d3d7a77db933a20b6d2c15576baf9f08d1606908222; expires=Fri, 01-Jan-21 11:23:42 GMT; path=\/; domain=.reqres.in; HttpOnly; SameSite=Lax; Secure\n2 < Transfer-Encoding: chunked\n2 < Vary: Accept-Encoding\n2 < access-control-allow-origin: *\n2 < cf-request-id: 06c4cab58300001700f0831000000001\n2 < etag: W\/\"2c1-N6Rqerxquq2kgQhL51EiSg4x0R8\"\n2 < via: 1.1 vegur\n2 < x-powered-by: Express\n{\"page\":1,\"per_page\":6,\"total\":12,\"total_pages\":2,\"data\":[{\"id\":1,\"name\":\"cerulean\",\"year\":2000,\"color\":\"#98B2D1\",\"pantone_value\":\"15-4020\"},{\"id\":2,\"name\":\"fuchsia rose\",\"year\":2001,\"color\":\"#C74375\",\"pantone_value\":\"17-2031\"},{\"id\":3,\"name\":\"true red\",\"year\":2002,\"color\":\"#BF1932\",\"pantone_value\":\"19-1664\"},{\"id\":4,\"name\":\"aqua sky\",\"year\":2003,\"color\":\"#7BC4C4\",\"pantone_value\":\"14-4811\"},{\"id\":5,\"name\":\"tigerlily\",\"year\":2004,\"color\":\"#E2583E\",\"pantone_value\":\"17-1456\"},{\"id\":6,\"name\":\"blue turquoise\",\"year\":2005,\"color\":\"#53B0AE\",\"pantone_value\":\"15-5217\"}],\"support\":{\"url\":\"https:\/\/reqres.in\/#support-heading\",\"text\":\"To keep ReqRes free, contributions towards server costs are appreciated!\"}}","line":8}},{"name":"status 200","result":{"duration":37200,"status":"passed"},"match":{"location":"karate","arguments":[]},"keyword":"Then","line":9},{"name":"match response.page == \"##\"","result":{"duration":12270400,"status":"passed"},"match":{"location":"karate","arguments":[]},"keyword":"*","line":10}],"tags":[{"name":"@ddt","line":3}]},{"line":15,"name":"url and path data driven testimg","description":"","id":"url-and-path-data-driven-testimg","type":"scenario","keyword":"Scenario Outline","steps":[{"name":"url \"http:\/\/reqres.in\"","result":{"duration":181800,"status":"passed"},"match":{"location":"karate","arguments":[]},"keyword":"Given","line":5,"doc_string":{"content_type":"","value":"16:53:43.412 skipping bootstrap configuration: could not find or read file: classpath:karate-config.js","line":5}},{"name":"path \"api\/users?page=2\"","result":{"duration":2230100,"status":"passed"},"match":{"location":"karate","arguments":[]},"keyword":"And","line":6},{"name":"method GET","result":{"duration":292160500,"status":"passed"},"match":{"location":"karate","arguments":[]},"keyword":"When","line":8,"doc_string":{"content_type":"","value":"16:53:43.417 request:\n1 > GET http:\/\/reqres.in\/api\/users%3Fpage=2\n1 > Accept-Encoding: gzip,deflate\n1 > Connection: Keep-Alive\n1 > Host: reqres.in\n1 > User-Agent: Apache-HttpClient\/4.5.12 (Java\/1.8.0_251)\n\n16:53:43.520 response time in milliseconds: 102.71\n1 < 301\n1 < CF-RAY: 5fb4ad69fabd1908-SIN\n1 < Cache-Control: max-age=3600\n1 < Connection: keep-alive\n1 < Date: Wed, 02 Dec 2020 11:23:43 GMT\n1 < Expires: Wed, 02 Dec 2020 12:23:43 GMT\n1 < Location: https:\/\/reqres.in\/api\/users%3Fpage=2\n1 < NEL: {\"report_to\":\"cf-nel\",\"max_age\":604800}\n1 < Report-To: {\"endpoints\":[{\"url\":\"https:\\\/\\\/a.nel.cloudflare.com\\\/report?s=TD%2BVEPsUEh%2FJnnZBZaS5ftc%2FHwpFm1qppBNQoMs3UPOegfkFaMEZDrKcGRj8BubhQdTJo61ombH9NBWT%2B0wVoIIatMMsQuLxkgk%3D\"}],\"group\":\"cf-nel\",\"max_age\":604800}\n1 < Server: cloudflare\n1 < Transfer-Encoding: chunked\n1 < Vary: Accept-Encoding\n1 < cf-request-id: 06c4cab63f00001908f81e5000000001\n\n16:53:43.523 request:\n2 > GET http:\/\/reqres.in\/api\/users%3Fpage=2\n2 > Accept-Encoding: gzip,deflate\n2 > Connection: Keep-Alive\n2 > Host: reqres.in\n2 > User-Agent: Apache-HttpClient\/4.5.12 (Java\/1.8.0_251)\n\n16:53:43.707 response time in milliseconds: 181.65\n2 < 200\n2 < Access-Control-Allow-Origin: *\n2 < Age: 2461\n2 < CF-Cache-Status: HIT\n2 < CF-RAY: 5fb4ad6b089418c2-SIN\n2 < Cache-Control: max-age=14400\n2 < Connection: keep-alive\n2 < Content-Type: application\/json; charset=utf-8\n2 < Date: Wed, 02 Dec 2020 11:23:43 GMT\n2 < Etag: W\/\"2c1-N6Rqerxquq2kgQhL51EiSg4x0R8\"\n2 < Expect-CT: max-age=604800, report-uri=\"https:\/\/report-uri.cloudflare.com\/cdn-cgi\/beacon\/expect-ct\"\n2 < NEL: {\"report_to\":\"cf-nel\",\"max_age\":604800}\n2 < Report-To: {\"endpoints\":[{\"url\":\"https:\\\/\\\/a.nel.cloudflare.com\\\/report?s=Yg8fq%2FPPs%2F8r5g9SQCUgSSAdTzCoUcBRTUvlz318SuIPxPpacxQpGELMbEmfCEcEYid%2F1TkwIS9LTSYYQ4uqvZwUlKV2KeuuVRg%3D\"}],\"group\":\"cf-nel\",\"max_age\":604800}\n2 < Server: cloudflare\n2 < Set-Cookie: __cfduid=d5d2e64e8a39e63812b96bf8953e30cf41606908223; expires=Fri, 01-Jan-21 11:23:43 GMT; path=\/; domain=.reqres.in; HttpOnly; SameSite=Lax; Secure\n2 < Transfer-Encoding: chunked\n2 < Vary: Accept-Encoding\n2 < Via: 1.1 vegur\n2 < X-Powered-By: Express\n2 < cf-request-id: 06c4cab6e7000018c213a2e000000001\n{\"page\":1,\"per_page\":6,\"total\":12,\"total_pages\":2,\"data\":[{\"id\":1,\"name\":\"cerulean\",\"year\":2000,\"color\":\"#98B2D1\",\"pantone_value\":\"15-4020\"},{\"id\":2,\"name\":\"fuchsia rose\",\"year\":2001,\"color\":\"#C74375\",\"pantone_value\":\"17-2031\"},{\"id\":3,\"name\":\"true red\",\"year\":2002,\"color\":\"#BF1932\",\"pantone_value\":\"19-1664\"},{\"id\":4,\"name\":\"aqua sky\",\"year\":2003,\"color\":\"#7BC4C4\",\"pantone_value\":\"14-4811\"},{\"id\":5,\"name\":\"tigerlily\",\"year\":2004,\"color\":\"#E2583E\",\"pantone_value\":\"17-1456\"},{\"id\":6,\"name\":\"blue turquoise\",\"year\":2005,\"color\":\"#53B0AE\",\"pantone_value\":\"15-5217\"}],\"support\":{\"url\":\"https:\/\/reqres.in\/#support-heading\",\"text\":\"To keep ReqRes free, contributions towards server costs are appreciated!\"}}","line":8}},{"name":"status 200","result":{"duration":19400,"status":"passed"},"match":{"location":"karate","arguments":[]},"keyword":"Then","line":9},{"name":"match response.page == \"##\"","result":{"duration":788300,"status":"passed"},"match":{"location":"karate","arguments":[]},"keyword":"*","line":10}],"tags":[{"name":"@ddt","line":3}]},{"line":16,"name":"url and path data driven testimg","description":"","id":"url-and-path-data-driven-testimg","type":"scenario","keyword":"Scenario Outline","steps":[{"name":"url \"http:\/\/reqres.in\"","result":{"duration":255000,"status":"passed"},"match":{"location":"karate","arguments":[]},"keyword":"Given","line":5,"doc_string":{"content_type":"","value":"16:53:43.717 skipping bootstrap configuration: could not find or read file: classpath:karate-config.js","line":5}},{"name":"path \"api\/users?page=3\"","result":{"duration":2733500,"status":"passed"},"match":{"location":"karate","arguments":[]},"keyword":"And","line":6},{"name":"method GET","result":{"duration":263391900,"status":"passed"},"match":{"location":"karate","arguments":[]},"keyword":"When","line":8,"doc_string":{"content_type":"","value":"16:53:43.723 request:\n1 > GET http:\/\/reqres.in\/api\/users%3Fpage=3\n1 > Accept-Encoding: gzip,deflate\n1 > Connection: Keep-Alive\n1 > Host: reqres.in\n1 > User-Agent: Apache-HttpClient\/4.5.12 (Java\/1.8.0_251)\n\n16:53:43.826 response time in milliseconds: 102.24\n1 < 301\n1 < CF-RAY: 5fb4ad6beefaddf9-SIN\n1 < Cache-Control: max-age=3600\n1 < Connection: keep-alive\n1 < Date: Wed, 02 Dec 2020 11:23:43 GMT\n1 < Expires: Wed, 02 Dec 2020 12:23:43 GMT\n1 < Location: https:\/\/reqres.in\/api\/users%3Fpage=3\n1 < NEL: {\"report_to\":\"cf-nel\",\"max_age\":604800}\n1 < Report-To: {\"endpoints\":[{\"url\":\"https:\\\/\\\/a.nel.cloudflare.com\\\/report?s=009%2B3LiS91sXdEu55Zf1%2BwLxQYt%2Fvlm4A6olEKUOlOQeAMeEHYNAQ8U2XWufMCFp0UTD5DFRVOwVANd5GvPBG9SLG3ewxd0yQww%3D\"}],\"group\":\"cf-nel\",\"max_age\":604800}\n1 < Server: cloudflare\n1 < Transfer-Encoding: chunked\n1 < Vary: Accept-Encoding\n1 < cf-request-id: 06c4cab7720000ddf96234f000000001\n\n16:53:43.827 request:\n2 > GET http:\/\/reqres.in\/api\/users%3Fpage=3\n2 > Accept-Encoding: gzip,deflate\n2 > Connection: Keep-Alive\n2 > Host: reqres.in\n2 > User-Agent: Apache-HttpClient\/4.5.12 (Java\/1.8.0_251)\n\n16:53:43.985 response time in milliseconds: 156.34\n2 < 200\n2 < Access-Control-Allow-Origin: *\n2 < Age: 1057\n2 < CF-Cache-Status: HIT\n2 < CF-RAY: 5fb4ad6ceba901b0-SIN\n2 < Cache-Control: max-age=14400\n2 < Connection: keep-alive\n2 < Content-Type: application\/json; charset=utf-8\n2 < Date: Wed, 02 Dec 2020 11:23:43 GMT\n2 < Etag: W\/\"2c1-N6Rqerxquq2kgQhL51EiSg4x0R8\"\n2 < Expect-CT: max-age=604800, report-uri=\"https:\/\/report-uri.cloudflare.com\/cdn-cgi\/beacon\/expect-ct\"\n2 < NEL: {\"report_to\":\"cf-nel\",\"max_age\":604800}\n2 < Report-To: {\"endpoints\":[{\"url\":\"https:\\\/\\\/a.nel.cloudflare.com\\\/report?s=HjO953qX48lohxM%2BC5uNmjCEb7pb9YGv2LJse1KVqWhX0hsHyWHblf88hC%2BE%2FGKX9ODqVH4i%2FHyS%2FdLESBuJNlkXXirdHpr3O2A%3D\"}],\"group\":\"cf-nel\",\"max_age\":604800}\n2 < Server: cloudflare\n2 < Set-Cookie: __cfduid=d6c8d3a38bf7b796bb18cb10ed5fe1dee1606908223; expires=Fri, 01-Jan-21 11:23:43 GMT; path=\/; domain=.reqres.in; HttpOnly; SameSite=Lax; Secure\n2 < Transfer-Encoding: chunked\n2 < Vary: Accept-Encoding\n2 < Via: 1.1 vegur\n2 < X-Powered-By: Express\n2 < cf-request-id: 06c4cab815000001b0dc177000000001\n{\"page\":1,\"per_page\":6,\"total\":12,\"total_pages\":2,\"data\":[{\"id\":1,\"name\":\"cerulean\",\"year\":2000,\"color\":\"#98B2D1\",\"pantone_value\":\"15-4020\"},{\"id\":2,\"name\":\"fuchsia rose\",\"year\":2001,\"color\":\"#C74375\",\"pantone_value\":\"17-2031\"},{\"id\":3,\"name\":\"true red\",\"year\":2002,\"color\":\"#BF1932\",\"pantone_value\":\"19-1664\"},{\"id\":4,\"name\":\"aqua sky\",\"year\":2003,\"color\":\"#7BC4C4\",\"pantone_value\":\"14-4811\"},{\"id\":5,\"name\":\"tigerlily\",\"year\":2004,\"color\":\"#E2583E\",\"pantone_value\":\"17-1456\"},{\"id\":6,\"name\":\"blue turquoise\",\"year\":2005,\"color\":\"#53B0AE\",\"pantone_value\":\"15-5217\"}],\"support\":{\"url\":\"https:\/\/reqres.in\/#support-heading\",\"text\":\"To keep ReqRes free, contributions towards server costs are appreciated!\"}}","line":8}},{"name":"status 200","result":{"duration":8800,"status":"passed"},"match":{"location":"karate","arguments":[]},"keyword":"Then","line":9},{"name":"match response.page == \"##\"","result":{"duration":349700,"status":"passed"},"match":{"location":"karate","arguments":[]},"keyword":"*","line":10}],"tags":[{"name":"@ddt","line":3}]},{"line":17,"name":"url and path data driven testimg","description":"","id":"url-and-path-data-driven-testimg","type":"scenario","keyword":"Scenario Outline","steps":[{"name":"url \"http:\/\/reqres.in\"","result":{"duration":147700,"status":"passed"},"match":{"location":"karate","arguments":[]},"keyword":"Given","line":5,"doc_string":{"content_type":"","value":"16:53:43.992 skipping bootstrap configuration: could not find or read file: classpath:karate-config.js","line":5}},{"name":"path \"api\/users?page=4\"","result":{"duration":1678100,"status":"passed"},"match":{"location":"karate","arguments":[]},"keyword":"And","line":6},{"name":"method GET","result":{"duration":277443100,"status":"passed"},"match":{"location":"karate","arguments":[]},"keyword":"When","line":8,"doc_string":{"content_type":"","value":"16:53:43.995 request:\n1 > GET http:\/\/reqres.in\/api\/users%3Fpage=4\n1 > Accept-Encoding: gzip,deflate\n1 > Connection: Keep-Alive\n1 > Host: reqres.in\n1 > User-Agent: Apache-HttpClient\/4.5.12 (Java\/1.8.0_251)\n\n16:53:44.102 response time in milliseconds: 106.92\n1 < 301\n1 < CF-RAY: 5fb4ad6d9cf6170c-SIN\n1 < Cache-Control: max-age=3600\n1 < Connection: keep-alive\n1 < Date: Wed, 02 Dec 2020 11:23:43 GMT\n1 < Expires: Wed, 02 Dec 2020 12:23:43 GMT\n1 < Location: https:\/\/reqres.in\/api\/users%3Fpage=4\n1 < NEL: {\"report_to\":\"cf-nel\",\"max_age\":604800}\n1 < Report-To: {\"endpoints\":[{\"url\":\"https:\\\/\\\/a.nel.cloudflare.com\\\/report?s=91UUxZmeqDOSXgV5gDaeBbEOh1pPGRf94eZD8nYTxvQuSEBJXS39OsPhBNAQ%2BOcuYSpVBP3jwnRCLSwD1r5q2zBBuqRQ1OEF3wU%3D\"}],\"group\":\"cf-nel\",\"max_age\":604800}\n1 < Server: cloudflare\n1 < Transfer-Encoding: chunked\n1 < Vary: Accept-Encoding\n1 < cf-request-id: 06c4cab8810000170cb90a8000000001\n\n16:53:44.103 request:\n2 > GET http:\/\/reqres.in\/api\/users%3Fpage=4\n2 > Accept-Encoding: gzip,deflate\n2 > Connection: Keep-Alive\n2 > Host: reqres.in\n2 > User-Agent: Apache-HttpClient\/4.5.12 (Java\/1.8.0_251)\n\n16:53:44.270 response time in milliseconds: 163.93\n2 < 200\n2 < Access-Control-Allow-Origin: *\n2 < Age: 131\n2 < CF-Cache-Status: HIT\n2 < CF-RAY: 5fb4ad6eac1eddf5-SIN\n2 < Cache-Control: max-age=14400\n2 < Connection: keep-alive\n2 < Content-Type: application\/json; charset=utf-8\n2 < Date: Wed, 02 Dec 2020 11:23:43 GMT\n2 < Etag: W\/\"2c1-N6Rqerxquq2kgQhL51EiSg4x0R8\"\n2 < Expect-CT: max-age=604800, report-uri=\"https:\/\/report-uri.cloudflare.com\/cdn-cgi\/beacon\/expect-ct\"\n2 < NEL: {\"report_to\":\"cf-nel\",\"max_age\":604800}\n2 < Report-To: {\"endpoints\":[{\"url\":\"https:\\\/\\\/a.nel.cloudflare.com\\\/report?s=QE7qoyeTBdNyk9lRFsth00Na7wD3uA8eLL0v78otSbLxmqc1zd1VD4g9c19m9fDlmor6z09tJP8Jcze4cKPMakG3jpDBy4fl%2Bgo%3D\"}],\"group\":\"cf-nel\",\"max_age\":604800}\n2 < Server: cloudflare\n2 < Set-Cookie: __cfduid=d64e147ac356909556abbfeb7d47f05ad1606908223; expires=Fri, 01-Jan-21 11:23:43 GMT; path=\/; domain=.reqres.in; HttpOnly; SameSite=Lax; Secure\n2 < Transfer-Encoding: chunked\n2 < Vary: Accept-Encoding\n2 < Via: 1.1 vegur\n2 < X-Powered-By: Express\n2 < cf-request-id: 06c4cab9260000ddf54f926000000001\n{\"page\":1,\"per_page\":6,\"total\":12,\"total_pages\":2,\"data\":[{\"id\":1,\"name\":\"cerulean\",\"year\":2000,\"color\":\"#98B2D1\",\"pantone_value\":\"15-4020\"},{\"id\":2,\"name\":\"fuchsia rose\",\"year\":2001,\"color\":\"#C74375\",\"pantone_value\":\"17-2031\"},{\"id\":3,\"name\":\"true red\",\"year\":2002,\"color\":\"#BF1932\",\"pantone_value\":\"19-1664\"},{\"id\":4,\"name\":\"aqua sky\",\"year\":2003,\"color\":\"#7BC4C4\",\"pantone_value\":\"14-4811\"},{\"id\":5,\"name\":\"tigerlily\",\"year\":2004,\"color\":\"#E2583E\",\"pantone_value\":\"17-1456\"},{\"id\":6,\"name\":\"blue turquoise\",\"year\":2005,\"color\":\"#53B0AE\",\"pantone_value\":\"15-5217\"}],\"support\":{\"url\":\"https:\/\/reqres.in\/#support-heading\",\"text\":\"To keep ReqRes free, contributions towards server costs are appreciated!\"}}","line":8}},{"name":"status 200","result":{"duration":21900,"status":"passed"},"match":{"location":"karate","arguments":[]},"keyword":"Then","line":9},{"name":"match response.page == \"##\"","result":{"duration":841100,"status":"passed"},"match":{"location":"karate","arguments":[]},"keyword":"*","line":10}],"tags":[{"name":"@ddt","line":3}]}],"name":"src\/test\/java\/featurefiles\/Karate11.feature","description":"reqres testig by data","id":"reqres-testig-by-data","keyword":"Feature","uri":"src\/test\/java\/featurefiles\/Karate11.feature"}]